{
  "version": "0.0.0",
  "private": true,
  "name": "clean.cms.yii2.test",  
  "repositories": [
   {
     "type": "vcs",
     "url":  "git@bitbucket.org:grinvich11/clean.cms.yii2.test.git"
   }
   ],
  "license": "MIT",
  "devDependencies": {
    "bower": "^1.3.12",
    "less": "^2.1.1",
    "autoprefixer": "^4.0.0",
    "flot": "^0.8.0"
  }
}